-7.665625423445621145e-02
3.188980074408431342e+00
3.213863205579676752e+00
3.098905271540031592e+00
2.973105455236468408e+00
2.989085196281484613e+00
2.913967235225777941e+00
3.051755118979786019e+00
2.822219728152048468e+00
2.963652689133489559e+00
3.045149358346260549e+00
2.935375199264764312e+00
3.050427190678560052e+00
3.036435195475601034e+00
2.969841057528883610e+00
3.034178324182091657e+00
3.033626925465311430e+00
3.055287226222469066e+00
2.931527241296868702e+00
3.032112601740211133e+00
3.068552248948996031e+00
3.024315953384409283e+00
2.953180563602420428e+00
3.113623227853946851e+00
2.968731079378213344e+00
3.074767317500825214e+00
3.082591778522347781e+00
2.992290125450209004e+00
3.042656736795680494e+00
3.183537287693392059e+00
3.070976400777156279e+00
3.097272516434856016e+00
2.998033390078036042e+00
3.097123238282239122e+00
2.909253342592932334e+00
3.084827512192269694e+00
3.163654974716917145e+00
2.998025703671126863e+00
3.166691005163160710e+00
3.093535809120066205e+00
3.113554859265634356e+00
3.117625824240563226e+00
3.087431586674888706e+00
2.986149594836620125e+00
3.123026841391014052e+00
3.132824585664837791e+00
3.165027706694215404e+00
3.035250780521188574e+00
3.225686824329260460e+00
3.153602466435025065e+00
3.109800250712004832e+00
3.057926294096148467e+00
3.062105172201600389e+00
3.172450957392952020e+00
3.195550335972196621e+00
3.241634606092600457e+00
3.244213497472040686e+00
3.265645329835066946e+00
3.150043760172577478e+00
3.204840372700837214e+00
3.234710061756262078e+00
3.180714049412084243e+00
3.166777173855194860e+00
3.147425931062958426e+00
3.247917133001767098e+00
3.177726160163639513e+00
3.089991767720333016e+00
3.351222572026364865e+00
3.285445115048534426e+00
3.398425214669357430e+00
3.147094707514688672e+00
3.176506954087702894e+00
3.212178668348533606e+00
3.159136478689336336e+00
3.394178777065625319e+00
3.296451850559222407e+00
3.239735759639769341e+00
3.346550246681268881e+00
3.146708060911032945e+00
3.194824577138541954e+00
3.244166569920899690e+00
3.287451571225911806e+00
3.281978544556569233e+00
3.068543146622549678e+00
3.336565803576275080e+00
3.368744752870740378e+00
3.454488972187135687e+00
3.174821405494658855e+00
3.336444439221545544e+00
3.233916440018274052e+00
3.224090579667704404e+00
3.308532458334133786e+00
3.238471648760254062e+00
3.135249748865613029e+00
3.194985182633772069e+00
3.201147761101378997e+00
3.212419475453852868e+00
3.237717874989632705e+00
3.159926762908003894e+00
3.204067382902843875e+00
3.346172196721401981e+00
3.109865787461637332e+00
3.159631038435469996e+00
3.218275103246092783e+00
3.205521024449882184e+00
3.237300078198293463e+00
3.234609835026748925e+00
3.034902565962335430e+00
3.103429633510012664e+00
3.024294006664812073e+00
3.062552096436010451e+00
3.096970420329580698e+00
3.055547856171228815e+00
3.096786654472675870e+00
3.016715308460889311e+00
3.042724700834200213e+00
3.088066929070096833e+00
3.079001922079671161e+00
2.866078176028245217e+00
2.915697284087595875e+00
2.908327231435684723e+00
2.865155301255199127e+00
2.790857358688169754e+00
2.766188941286073621e+00
2.766057665507491770e+00
2.777063490788991729e+00
2.713533398234415195e+00
2.781249246213804760e+00
2.814707173523606443e+00
2.555429121664692715e+00
2.726363127474734860e+00
2.790173268281890273e+00
2.675562234018389329e+00
2.540792277193164139e+00
2.484197449489436771e+00
2.702724891162313181e+00
2.576020505874875965e+00
2.440143402734089584e+00
2.515580855447681063e+00
2.447472090367090125e+00
2.397861882363326647e+00
2.534199866638011667e+00
2.481238889962996907e+00
2.354132586389630966e+00
2.406752124683904093e+00
2.257521706250340543e+00
2.365851629519628574e+00
2.337500815354431438e+00
2.299754074059074949e+00
2.270991632459144149e+00
2.275667093046488176e+00
2.285925718456230271e+00
2.138339888153113044e+00
2.229142776004747528e+00
2.191310068297689817e+00
2.198439920669124525e+00
2.048774006474769482e+00
2.147362518755116412e+00
2.101722745579379215e+00
1.890849955973557650e+00
2.088413424869067114e+00
2.199750756823875886e+00
1.910438061525630893e+00
2.028324416283092901e+00
1.887171200138160421e+00
1.860120805020267998e+00
1.880240486445914128e+00
1.895041981888464955e+00
1.773468578067111556e+00
1.874141017437418899e+00
1.733508858915112416e+00
1.769668963559179575e+00
1.600196892527542714e+00
1.573498757449181884e+00
1.565122796576614572e+00
1.650782364256330181e+00
1.583956622671290226e+00
1.500375722959553126e+00
1.393029053228720171e+00
1.429514717752004227e+00
1.451696278408547203e+00
1.517243244250817469e+00
1.287806664237403975e+00
1.400823072026479377e+00
1.413223879414965189e+00
1.194581748428720891e+00
1.302133321644935560e+00
1.209855250072033206e+00
1.293429171331464289e+00
1.098803023212540975e+00
1.190959932706543212e+00
1.150094228655328621e+00
1.149943837993656182e+00
1.097050724216296791e+00
1.077732148664535705e+00
9.868252920093065761e-01
9.696091516172409275e-01
1.121686575514513340e+00
1.044456166749142989e+00
8.791320259145959382e-01
9.418997480613611195e-01
9.349656968464549189e-01
9.442721177613776495e-01
9.766396874901392966e-01
9.203066022439942984e-01
8.513002466365738874e-01
8.107326943472463743e-01
7.911814026477971273e-01
7.243778100626078187e-01
8.311279739925940824e-01
8.355508955869490606e-01
8.075479925693458405e-01
8.260085221416114676e-01
6.310070547541943853e-01
6.866520041135339980e-01
7.104061433833412931e-01
7.616834930640888901e-01
5.834786499629118772e-01
7.177475742794994229e-01
6.841255016825776858e-01
6.393660246178114459e-01
5.795806291916111297e-01
5.888873535218261956e-01
5.563914409911544512e-01
5.546182066480065398e-01
5.961930830685152616e-01
6.032628600829254006e-01
5.379991788668009312e-01
5.704588843689164523e-01
6.187789892911798040e-01
4.385113567267357459e-01
6.429218990456907479e-01
4.835148772735733402e-01
5.282807259708498515e-01
5.940346180359679096e-01
5.369634352438121816e-01
5.250515239263487954e-01
5.551309710377917428e-01
5.055372483550392149e-01
5.427760798290734989e-01
4.170772993500243553e-01
3.735069906785265514e-01
4.159034026401933204e-01
4.527687353150585681e-01
5.454706718937202270e-01
5.119579283541527692e-01
4.820657868949983493e-01
4.692440474719918320e-01
3.666600183924520473e-01
4.525716193766755602e-01
5.506270387342293571e-01
4.111965895887173539e-01
4.053408606619053334e-01
3.868239978010294400e-01
4.167194767823781398e-01
4.292505485772967755e-01
5.647918770078705908e-01
5.718608449231639135e-01
4.451493800537363876e-01
4.543001511829861672e-01
5.253477540885282959e-01
5.291069138071271549e-01
4.406409977224202690e-01
6.061749977502002285e-01
4.798412794237947310e-01
5.081272648021187832e-01
5.000980014303356702e-01
5.440400895743231491e-01
6.302341660965213865e-01
6.734377521469596672e-01
4.390175472169562387e-01
4.279009769623711712e-01
4.965912795727908113e-01
4.516520821252012485e-01
5.466513447804957071e-01
4.620364207759397601e-01
3.810307715156271424e-01
4.850775444679516490e-01
4.568718618366991446e-01
6.228874760807893152e-01
5.340092246023997458e-01
4.182732439230333332e-01
4.917652260443764467e-01
3.996038665252587552e-01
5.512583356477471774e-01
3.172192147935944395e-01
4.126955404970461538e-01
3.898999773477379582e-01
4.642249234871937413e-01
5.012650208327601442e-01
5.110386945094333999e-01
4.486276824294112564e-01
5.089310002299288760e-01
4.673823182817206656e-01
4.075596033245859062e-01
4.782779042759762733e-01
4.083753740508557217e-01
5.185808822724552458e-01
5.761908216584001874e-01
6.342515284776305551e-01
7.609881764555926908e-01
4.736382461751608708e-01
6.242958082673143450e-01
4.768717971000308031e-01
4.835486570234106551e-01
5.335340831593862188e-01
5.590102814665566244e-01
5.602235204617901365e-01
5.341297798611159831e-01
5.482949215446153435e-01
5.586177689239184563e-01
4.456265442348386618e-01
4.881576706310809532e-01
5.887372662677622381e-01
5.661451906882586371e-01
4.087665718187031838e-01
5.244847523972999692e-01
5.693929007948107524e-01
5.256291171139562124e-01
4.864590753614463914e-01
5.108889106701184346e-01
6.812720234545783793e-01
4.875122145392191131e-01
4.508490546491230599e-01
6.211969717692563675e-01
4.774963178402521491e-01
5.571927491345000094e-01
4.758002509947827363e-01
5.757563372713109251e-01
4.984502780580242765e-01
5.440956137660686309e-01
4.844944898860312765e-01
4.611694747420223561e-01
4.373924785192352394e-01
5.634693089630430363e-01
4.386222028310583498e-01
5.019015768639120134e-01
5.193307117053592714e-01
4.862629707949801539e-01
4.596474646086125548e-01
4.466593548854254636e-01
5.292062303027906811e-01
5.443831461487211865e-01
5.331629105055259998e-01
4.689004852105105314e-01
5.560777141374431132e-01
3.992202540295131663e-01
5.472935644869129090e-01
4.570323661973549334e-01
6.212469334272976429e-01
5.091885960742736916e-01
5.498277533288176144e-01
4.345620595160827881e-01
5.339949642890919890e-01
5.755098664932074559e-01
5.517721114131759474e-01
5.561128086585760411e-01
5.692668841389078027e-01
5.375990810468610492e-01
6.473323807949766806e-01
5.805293950309025064e-01
6.417218078604542963e-01
5.815074905795462046e-01
7.134729194677877917e-01
5.520714768166762321e-01
5.683196353622648189e-01
6.024674178809696912e-01
6.346576945164956740e-01
5.641198218960898902e-01
7.450817597090684252e-01
5.199377357476058226e-01
5.289606697604762875e-01
5.150269294449849600e-01
5.840686829924039980e-01
6.763781070259446970e-01
5.620168810614202259e-01
3.813824247291519587e-01
5.117647567541884213e-01
4.835393524206721416e-01
4.381943934882006619e-01
6.438435601740216674e-01
5.906730277097319570e-01
5.903344211638656969e-01
5.685519469558132366e-01
5.749506802367264635e-01
5.327201328907188449e-01
4.894537407885458657e-01
5.042379418118191348e-01
4.314198352651389401e-01
6.353585736571409903e-01
5.252851503104458697e-01
5.716923507505513591e-01
4.585164499691651852e-01
5.421822035962035047e-01
4.456597171602992291e-01
4.440380871211334624e-01
5.556441399819482818e-01
5.809383929017730708e-01
5.222869450868011798e-01
4.388726179509186420e-01
4.614665139990481446e-01
5.478646849108489425e-01
5.249897292434243523e-01
6.194051282229607880e-01
6.434070530480661132e-01
5.885592652169719941e-01
5.988971820052841899e-01
7.203892717106754606e-01
5.649882849864464873e-01
5.998711309437180228e-01
6.022714144482236298e-01
7.605256771308360753e-01
6.162991110004960582e-01
7.514360938567947734e-01
5.491551925374833498e-01
5.227413534557111552e-01
6.367452625361782470e-01
6.407116518897365554e-01
6.769743094160776131e-01
6.887963099714634607e-01
6.399511019389076960e-01
6.624956431504233079e-01
5.762332991783706282e-01
6.282833352485716061e-01
5.300473864123367296e-01
6.423485536107097493e-01
6.563504602355816342e-01
6.111870421488164729e-01
5.909489293451912761e-01
5.021352032477761629e-01
6.192387579195954839e-01
5.914701892436452502e-01
6.036432361948569358e-01
6.598981425694664393e-01
5.482566917734672529e-01
4.347008194306396511e-01
5.224014321276020389e-01
4.869754806864678431e-01
5.757331769069186089e-01
4.969046018775648554e-01
7.157658966575299875e-01
6.155912534062231156e-01
5.127343568043352118e-01
5.122626540204198164e-01
5.834326326442216271e-01
5.254849969446285796e-01
6.797098619444111867e-01
6.092126463884680598e-01
4.277498783410491057e-01
6.032224052974733963e-01
5.772784485407704835e-01
6.633625891827887866e-01
5.165937432529881246e-01
6.049017845442392627e-01
5.814641028274358803e-01
6.385128332111259519e-01
6.530350895006795664e-01
5.642904399512266300e-01
6.000574252285133525e-01
5.578016947817340254e-01
6.245709008051312239e-01
7.357930377587122983e-01
6.422272903938963662e-01
4.667081392979758325e-01
6.174021107020430943e-01
6.178073665030239248e-01
6.194125112235829844e-01
6.617111237398136669e-01
6.050633002663314830e-01
5.627221090899667821e-01
5.719376078815310294e-01
7.313381568799643961e-01
5.759661964642324161e-01
5.246689227998034832e-01
4.626859223459980353e-01
6.502393604799709959e-01
5.634026597052127494e-01
5.719415522235988814e-01
6.150071874550251394e-01
5.511550748111019304e-01
4.880005037888146546e-01
5.848459205444200837e-01
6.712149640090324665e-01
5.294378339463922112e-01
5.771822672861925962e-01
5.314616856800256084e-01
5.135221125967416311e-01
6.367448579855329305e-01
6.281852323939748350e-01
5.979878595836419786e-01
5.684999625635651643e-01
5.284654020623791304e-01
4.439006419874219622e-01
4.858551865658777835e-01
4.854991844622010833e-01
5.253716224142792601e-01
4.856014339283258319e-01
4.660752241950734676e-01
6.358608198093307351e-01
5.662457208283285803e-01
5.660855198782318576e-01
4.479741353863583853e-01
5.786617998976907318e-01
5.194667409142577075e-01
6.011471759849450480e-01
5.530680804390156746e-01
5.758483719057404526e-01
6.344606797143953481e-01
3.806255157085909335e-01
6.384671193032265268e-01
6.532793352674284293e-01
5.626130834478277887e-01
5.628346745297378995e-01
5.582573167907802780e-01
5.628386188715737148e-01
6.592409545930411063e-01
6.244468057523542281e-01
6.606535345352961830e-01
7.476373895856609497e-01
5.912098627031902032e-01
5.426857645257443519e-01
6.027870106811150652e-01
5.914059672726073025e-01
7.442585048433314476e-01
5.617764785058911858e-01
6.738136782310577555e-01
6.878438020692689836e-01
6.644625547735557580e-01
3.725043188424645435e-01
6.116982894886840993e-01
5.720301482000946791e-01
5.459861669878443013e-01
5.198401385786951545e-01
6.130346121597339826e-01
6.346922833545037834e-01
5.806206205658279718e-01
5.870406937425057814e-01
5.220271242322667149e-01
6.065745898832131111e-01
4.315309847832805579e-01
5.003781508159365066e-01
5.268571220984031855e-01
5.849387642736965098e-01
5.745540210740213150e-01
5.580070028113957026e-01
5.886309713235956531e-01
6.562183753619967863e-01
6.609463260368242388e-01
5.309744078020359748e-01
6.708016172461491733e-01
5.868195072096097364e-01
6.252163568907823654e-01
6.949689010034786341e-01
7.415742287484490269e-01
7.336804889079501235e-01
7.385870474567807209e-01
7.218172244689262662e-01
7.708765394496697176e-01
7.660662632912343950e-01
7.544968017242569269e-01
7.326357440982155245e-01
7.217307523697522598e-01
8.587025619809539601e-01
9.277653520148985145e-01
7.873393106201280744e-01
8.311897686756741788e-01
8.918098474439463130e-01
7.629381982085415848e-01
7.603244145774294971e-01
7.560126425023030450e-01
7.381375947984400998e-01
6.913850116377761035e-01
6.713770865572875612e-01
8.294315025999725588e-01
7.639868873609649835e-01
6.447957646670549048e-01
4.752276135227137543e-01
6.934209998052990320e-01
7.131273344699257111e-01
5.736753431506489420e-01
5.148508499969313146e-01
5.678411563946502705e-01
6.142387488186642486e-01
5.822652086997688325e-01
5.963914126483544909e-01
5.598149271353558554e-01
4.526800381986300637e-01
6.248535786103942558e-01
6.736679398680776032e-01
7.395000108069824662e-01
7.493480201528992524e-01
5.891342288418796036e-01
7.140059112508810868e-01
7.560765610619283317e-01
7.120732850558985083e-01
7.355441396986283076e-01
5.776730849640665522e-01
7.083619631219795210e-01
5.501914418436745224e-01
6.208969995426225630e-01
6.206096694342440045e-01
6.316530165257656648e-01
5.791105445944403352e-01
7.197421974287302460e-01
6.788132827822772608e-01
7.192363103517077638e-01
5.791844757143583822e-01
6.961429999870404339e-01
7.776769887356383970e-01
7.659972878807187469e-01
6.408800449292488821e-01
8.031936418340063222e-01
8.508685940832735328e-01
7.782370852303156505e-01
7.763224614131735146e-01
6.764088526644563837e-01
7.400444310703699902e-01
6.891590882511545724e-01
8.174915763449196460e-01
7.859371477858618782e-01
6.792378557465218458e-01
6.934527568116914953e-01
7.289381767886562447e-01
5.863726841127250289e-01
6.178184915706635971e-01
7.436951719672463268e-01
6.367917855389256809e-01
7.403901172041279510e-01
6.090587159342096824e-01
5.543333038205989771e-01
6.938449659498261424e-01
6.077274501085356828e-01
7.279855677484705634e-01
6.768512257293166634e-01
6.901772340402724248e-01
6.828145643892918892e-01
6.450667105860453665e-01
6.416090401503669050e-01
6.959211054938726493e-01
6.496685434670573800e-01
6.745318517918346135e-01
6.263390783001070439e-01
6.672543394597267863e-01
6.267608194259826071e-01
6.197144050543513805e-01
6.099143346263690146e-01
6.366041764752259358e-01
6.901632771430350477e-01
6.237937643915723029e-01
5.950640911677771427e-01
7.699495180600477440e-01
8.347205611340963172e-01
6.984727910304926457e-01
6.443288153135333651e-01
8.210053777969528177e-01
7.468951454281985702e-01
6.361492624214072356e-01
6.393326494211035715e-01
8.058590053140173293e-01
7.208794825644831983e-01
8.007825366717199467e-01
8.050784302474151000e-01
7.948288060243434705e-01
7.381175696809596509e-01
7.773552720637590951e-01
7.345715055391764947e-01
7.634314431687061475e-01
7.544073966479443172e-01
8.472633648188572231e-01
8.880069965568581081e-01
7.066507257354868177e-01
8.068759374610594559e-01
8.188459013941964404e-01
6.497234608382285170e-01
7.585244800756729688e-01
7.676314589030989177e-01
7.236665138079949600e-01
6.557891501025538972e-01
7.559683445102118871e-01
6.683135468526975043e-01
7.661691195792517117e-01
7.510778667444028001e-01
6.184719374806151304e-01
7.654376970740587316e-01
6.179100205239866916e-01
7.703862274584926118e-01
7.262237618800259087e-01
6.305489043190443121e-01
6.993606724140314368e-01
7.770413429310379927e-01
6.613002042638007616e-01
6.672470575951544580e-01
6.935849428196186883e-01
7.041284710514119638e-01
8.246657267028557614e-01
8.078766876938409114e-01
6.896233069074011457e-01
7.624462680283669025e-01
8.966459135279193360e-01
6.796181307198404520e-01
8.561299410913736363e-01
8.233769384067016750e-01
7.533594154532304854e-01
7.756098503812103306e-01
8.102482483028914384e-01
7.832032134476114571e-01
7.317235898421620144e-01
8.525170254174859741e-01
7.413206783882005935e-01
8.040878948471057441e-01
8.904548144333090942e-01
8.166662987406260177e-01
8.641194576330871735e-01
8.003659535269622705e-01
9.225664065113036161e-01
8.496661767513296049e-01
9.560639795075969172e-01
9.253447399797142259e-01
7.612936100791811711e-01
7.997276781637779886e-01
8.757280592049825341e-01
8.389446474667283660e-01
7.813832538246475723e-01
9.357748936771970172e-01
9.119736245842260391e-01
8.775811917496039172e-01
9.203164125284603037e-01
8.901200510891128515e-01
9.273498813763998427e-01
9.289194258817561334e-01
8.965178741351692571e-01
8.749810616067238422e-01
7.706502960634010746e-01
9.819490745561065825e-01
8.709655196932338805e-01
1.003966287646985034e+00
1.105622385107945416e+00
9.286788210500100949e-01
8.290991665488566253e-01
9.693270806305330778e-01
1.011040818104367300e+00
8.614670396796374474e-01
1.015135145710663434e+00
1.035532549230073318e+00
8.713682470703607574e-01
1.059907467166951722e+00
1.085961359804687776e+00
8.962745386051408358e-01
1.069404733530706864e+00
1.014823947282202710e+00
1.133779926542874961e+00
9.559684050809681422e-01
1.074285906703325688e+00
1.105931763074146090e+00
1.165081209284565267e+00
1.089220801798520766e+00
1.122162424917566126e+00
1.136086759496599097e+00
1.130321042458441783e+00
1.189121667292465157e+00
1.279001478098329425e+00
1.199044012304054441e+00
1.127889305360973982e+00
1.278984891636840926e+00
1.264271992171874803e+00
1.296081184736363801e+00
1.168487805557653303e+00
1.082350770281076624e+00
1.189120757061567613e+00
1.285191565823507576e+00
1.435154721546290979e+00
1.232040047108198255e+00
1.324466082059395422e+00
1.463751500799868488e+00
1.350481138101685019e+00
1.426992260794584855e+00
1.589122799798206698e+00
1.462202790507618477e+00
1.568349267917708234e+00
1.608484661967891416e+00
1.702269471993638206e+00
1.620570225452515833e+00
1.453055356892410277e+00
1.808220552794582936e+00
1.801435577462523696e+00
1.816933805433258886e+00
1.992275764572770003e+00
2.021748187643130468e+00
1.998120469572418845e+00
2.077001433548004705e+00
2.418554504670513694e+00
2.396752713305640103e+00
2.443465043958464200e+00
2.609745839312403337e+00
3.049389323178866462e+00
3.258433455387632627e+00
3.614147319300772487e+00
4.054760099813656815e+00
4.597036664188205002e+00
5.741357084846888448e+00
7.169168251619468357e+00
1.067474170530190314e+01
2.331152417941247990e+01
4.967122626347708092e+01
8.059390724110575377e+01
9.852704497884053580e+01
1.018014234852924744e+02
1.004844962534813675e+02
1.000922523259137762e+02
1.000275762504448664e+02
1.001382574057974040e+02
1.002856220495651343e+02
1.004811694542706846e+02
1.008585002311854169e+02
1.010300195165904142e+02
1.011416936346260371e+02
1.012930208245494157e+02
1.015790517265784132e+02
1.013429544685586592e+02
1.015718384362166375e+02
1.018796734557670192e+02
1.019634051506883736e+02
1.020593664281236528e+02
1.022390845835838178e+02
1.022067127661011767e+02
1.020962611916572200e+02
1.022457469809140918e+02
1.023986828553436510e+02
1.025141839959974135e+02
1.024269317234550982e+02
1.024382410607567806e+02
1.027169994061669342e+02
1.026927502014720943e+02
1.027346824959134466e+02
1.030176271024323285e+02
1.030689328715974966e+02
1.031093260637670141e+02
1.029974464354207981e+02
1.031602418488048585e+02
1.031746783409569730e+02
1.031759092789127266e+02
1.033062290071653280e+02
1.031760075840419404e+02
1.031411642826358559e+02
1.031948092485812936e+02
1.032037895027992107e+02
1.032846240283251404e+02
1.034405713569165783e+02
1.034859966185967721e+02
1.031945754199274177e+02
1.033615311022224574e+02
1.034066759111112077e+02
1.033880208951658517e+02
1.033272629667161766e+02
1.032625258045261347e+02
1.033613668557962910e+02
1.035694386572589565e+02
1.037873553328187768e+02
1.037876005899482550e+02
1.038003822791384749e+02
1.038403587870208185e+02
1.040657225816014346e+02
1.040454351139588169e+02
1.037768319308459581e+02
1.039056686878269744e+02
1.040070712349243962e+02
1.037810973821916889e+02
1.038059894134173362e+02
1.036936191696717344e+02
1.037659117685715273e+02
1.036870688320931748e+02
1.036460161258027739e+02
1.034917646617805360e+02
1.035001391055990467e+02
1.035479979248449354e+02
1.036757287491533361e+02
1.037727093860230525e+02
1.036513707210863373e+02
1.034733258766606951e+02
1.034362081061237006e+02
1.036243305408042943e+02
1.035007125521725300e+02
1.035560593497670538e+02
1.034981260755160548e+02
1.035558317916050157e+02
1.034130122428849745e+02
1.033845228710739406e+02
1.033911561409668565e+02
1.034547870670761682e+02
1.034950557596419571e+02
1.033322285892471371e+02
1.033862150947190770e+02
1.032583929437333978e+02
1.031906142896974501e+02
1.032419663795939329e+02
1.033518730280908073e+02
1.032921149396464102e+02
1.032758286524708922e+02
1.033736443772372553e+02
1.035025224992329385e+02
1.032483232421649291e+02
1.032894899298147777e+02
1.031418880187315779e+02
1.033927167854229765e+02
1.033537101809948950e+02
1.032524760269420483e+02
1.032231412512755782e+02
1.032302993208584496e+02
1.031792512486714912e+02
1.032454548968035368e+02
1.031070328843007786e+02
1.032798771650396077e+02
1.030844373700611385e+02
1.031140704997626187e+02
1.031063865179796153e+02
1.031561741202164484e+02
1.030443572979278883e+02
1.030328822982844912e+02
1.031213976703449759e+02
1.032336004312774520e+02
1.031734297040310935e+02
1.030460229225469391e+02
1.031882236142017746e+02
1.030466176078787726e+02
1.031080425345852518e+02
1.031793504640272516e+02
1.034624817693788117e+02
1.034119774094897366e+02
1.033977692845995762e+02
1.034295790839879601e+02
1.032792123917940188e+02
1.033855736841089339e+02
1.035773320936891793e+02
1.033566700553071769e+02
1.034580220339228163e+02
1.035089187040838112e+02
1.034710276403428963e+02
1.035940851279390529e+02
1.034699647920161283e+02
1.034751907410874594e+02
1.035934211637874967e+02
1.035101881752231350e+02
1.035146957484592605e+02
1.037530480573102949e+02
1.037840203415170492e+02
1.036955421878568870e+02
1.038657245437701704e+02
1.037668645798882920e+02
1.038394813227466784e+02
1.038680141834393709e+02
1.040420121335004069e+02
1.040445282188252918e+02
1.040499110313264168e+02
1.041217847209270531e+02
1.038913781363137332e+02
1.039545128844894890e+02
1.038994772853214528e+02
1.038409074550393711e+02
1.036952750851438765e+02
1.036618983708139723e+02
1.036077316392860581e+02
1.037257182207689539e+02
1.036237556783145379e+02
1.035175220208425344e+02
1.037111388220908879e+02
1.034462692110460154e+02
1.033554188899605322e+02
1.033373660434775303e+02
1.032139368775542181e+02
1.033113032507887539e+02
1.033490253146688929e+02
1.034044011385763326e+02
1.032287084364557330e+02
1.032445569017235698e+02
1.032965000360206602e+02
1.034614757600206758e+02
1.034492225114605333e+02
1.034530974730015771e+02
1.033720983976402152e+02
1.032139036034917297e+02
1.031993512083848117e+02
1.032013877022392592e+02
1.031678895224234083e+02
1.033288887433729570e+02
1.033320564541409681e+02
1.032430603781038485e+02
1.033516265573165782e+02
1.035653291591018501e+02
1.036145817468178478e+02
1.037031723647761794e+02
1.038505485381578950e+02
1.037829744842006932e+02
1.037731082701998560e+02
1.037145290341753281e+02
1.037645427786592904e+02
1.037602851148579362e+02
1.037492616917466108e+02
1.034802503198583281e+02
1.035486754413505679e+02
1.034837842475653389e+02
1.034140125885705572e+02
1.032886308724598194e+02
1.032799212607543780e+02
1.035212569076911961e+02
1.033402613924137370e+02
1.034451767295898179e+02
1.033819178863631265e+02
1.033327238569483768e+02
1.031207129731146495e+02
1.031734121062026901e+02
1.034226020495651710e+02
1.033995785237040934e+02
1.032115622828371784e+02
1.032683673742790091e+02
1.031108702228890905e+02
1.033989318539754549e+02
1.032360977051327779e+02
1.034516395837013363e+02
1.032625886105777795e+02
1.034796812221774189e+02
1.036081442780822783e+02
1.036830366025769337e+02
1.040593662247112547e+02
1.038853681735166106e+02
1.036834892916130997e+02
1.036548885680193735e+02
1.037020009964894172e+02
1.039642372033328144e+02
1.039923321409880543e+02
1.039465401566858986e+02
1.041576317055372556e+02
1.043130489753155388e+02
1.040375687822351694e+02
1.039806483946519791e+02
1.039566858121083754e+02
1.042584450286972100e+02
1.042396031116470994e+02
1.039732752067542094e+02
1.039591041991284470e+02
1.041561038294609745e+02
1.038842345293182206e+02
1.038854999549786129e+02
1.038214227114566199e+02
1.038189558798304972e+02
1.038013415632176901e+02
1.034796011216995737e+02
1.038519564658005265e+02
1.037377088166403780e+02
1.038261166801129747e+02
1.036598219278601363e+02
1.036629605111848917e+02
1.038301270640445324e+02
1.037922209308980968e+02
1.037689320216484958e+02
1.035135608906154943e+02
1.035077468301082604e+02
1.033827503446925391e+02
1.033343603541224951e+02
1.034963920823133350e+02
1.037128906154044898e+02
1.037081342452432153e+02
1.033610351265640901e+02
1.032261422883328947e+02
1.032994476727619713e+02
1.031887665174092774e+02
1.031011324528318909e+02
1.030002541997458536e+02
1.028756119971014584e+02
1.025976708383375353e+02
1.027665807901379793e+02
1.030589902991937379e+02
1.030512977207713732e+02
1.032948481660329776e+02
1.029947497194794153e+02
1.030149644696524120e+02
1.033017650239598595e+02
1.034071837197948156e+02
1.032114210956340088e+02
1.033264039093675564e+02
1.034775590653118371e+02
1.035184575377398204e+02
1.035164600827486510e+02
1.038229704103819984e+02
1.038100543101687947e+02
1.037453144172824153e+02
1.037988669440474752e+02
1.038312785083507777e+02
1.040732704330358587e+02
1.037925256565636545e+02
1.039176982214292480e+02
1.038903254016830999e+02
1.039201051799763746e+02
1.038398234690829298e+02
1.036550537246755965e+02
1.040165196521371769e+02
1.039235291718061376e+02
1.038320224718380587e+02
1.037282232821690968e+02
1.039797743690352121e+02
1.038439037386559392e+02
1.039710372480722498e+02
1.037530366288335699e+02
1.037307457391213177e+02
1.037322303285755680e+02
1.037441247432038125e+02
1.036934545187021399e+02
1.036839340919722758e+02
1.039079296046005538e+02
1.033962024707955294e+02
1.034305351316836123e+02
1.033898632060538176e+02
1.035945490431812885e+02
1.037419712338838593e+02
1.036111228627368206e+02
1.035762568055130544e+02
1.033709126679039372e+02
1.031817844261435937e+02
1.033811505602337775e+02
1.030668770605833373e+02
1.031685778605782957e+02
1.029027021390426597e+02
1.030248985465494087e+02
1.029353169886432511e+02
1.031160724047774977e+02
1.031575719341648494e+02
1.030596890544621971e+02
1.031238468030009585e+02
1.030189272180723350e+02
1.030487642398878592e+02
1.029710790182050175e+02
1.030854917228838872e+02
1.031353910814680148e+02
1.034127118661054965e+02
1.034270545031565973e+02
1.034764732588959788e+02
1.033091205128882990e+02
1.032905964693060099e+02
1.035047949456179168e+02
1.035154402176291768e+02
1.033520610417036494e+02
1.032883059194078896e+02
1.031011730087557368e+02
1.030901267286895404e+02
1.031852413886236945e+02
1.029620439477555749e+02
1.029103768162253800e+02
1.028575666347566511e+02
1.030418687218543283e+02
1.034246635242488139e+02
1.032460474582603780e+02
1.033481726289456901e+02
1.033082874477396871e+02
1.033395581871174187e+02
1.033624780475946352e+02
1.034986494592932758e+02
1.034408844769479714e+02
1.035296192150778580e+02
1.036832903552123781e+02
1.036053264000632907e+02
1.039602409785788382e+02
1.037310536000334480e+02
1.038173421384749702e+02
1.038513545997438570e+02
1.038673124952051552e+02
1.036994295892444171e+02
1.036122819934540900e+02
1.034693669714377364e+02
1.034620488020464535e+02
1.036651857266078878e+02
1.034231929928293567e+02
1.035127057776035144e+02
1.035359743583208996e+02
1.038736361848538934e+02
1.036876400536522169e+02
1.040133747983209673e+02
1.039777151193604112e+02
1.038490929750117004e+02
1.036890076276455375e+02
1.039380342348166124e+02
1.039073727444882138e+02
1.038299945746219350e+02
1.039253756293101389e+02
1.040375544207860514e+02
1.041020873874566206e+02
1.042324918684750514e+02
1.041865666867938529e+02
1.043606635487974188e+02
1.044053168320530602e+02
1.042648681359827805e+02
1.041780915105640872e+02
1.043429788408594590e+02
1.041642690209064170e+02
1.042556342302654571e+02
1.041956823634002518e+02
1.040884255032938910e+02
1.040992498888640938e+02
1.041217835072869349e+02
1.037315838611217345e+02
1.038991324082845722e+02
1.039778894794839346e+02
1.040554567754660127e+02
1.040400135660053280e+02
1.040505709499994111e+02
1.039967887411898602e+02
1.041047182632305805e+02
1.041943486702911343e+02
1.043310333520715716e+02
1.042872415534535406e+02
1.041923317970097287e+02
1.042265520947313604e+02
1.042152368914856737e+02
1.041236141874230583e+02
1.040868308768217787e+02
1.039607042869942148e+02
1.039698811514638095e+02
1.038259170357524539e+02
1.036276068726699577e+02
1.034863077158917548e+02
1.035429065890704550e+02
1.035530652911616869e+02
1.035983707055416545e+02
1.035291385110973721e+02
1.035248014547837698e+02
1.036231384394391739e+02
1.035117443696505291e+02
1.034454781177333160e+02
1.039366305549276888e+02
1.039514922268653265e+02
1.039277032964798479e+02
1.038310678400583953e+02
1.037526388571637739e+02
1.038193652822528179e+02
1.037754371510091715e+02
1.037826438674700142e+02
1.039871500853539175e+02
1.041007587511913357e+02
1.040610128355822894e+02
1.041841381860756570e+02
1.042767667983588922e+02
1.042245857899257544e+02
1.041285126550134521e+02
1.040226729260071750e+02
1.040339581927103154e+02
1.042107845390335683e+02
1.040601553964233403e+02
1.041462447961873750e+02
1.041518165325303755e+02
1.041805275965532189e+02
1.040927569970763358e+02
1.042068407032236479e+02
1.043477402678696961e+02
1.044956389147949949e+02
1.043067940587983742e+02
1.044814006510888191e+02
1.046310764767001587e+02
1.046120012366771306e+02
1.045099436254817675e+02
1.042169395322320469e+02
1.044061255231974172e+02
1.042290019353477390e+02
1.041760165846610988e+02
1.041453923127370160e+02
1.042428313023160484e+02
1.039739420027385393e+02
1.040465156612568478e+02
1.039363758920596581e+02
1.038518813210406933e+02
1.040337079798716928e+02
1.041462732156744551e+02
1.042976974970743385e+02
1.043112391293898185e+02
1.042652441632042581e+02
1.042466413339272151e+02
1.041011109100931549e+02
1.041477946189851309e+02
1.041959500729378902e+02
1.041726822001822086e+02
1.042243319361536180e+02
1.043533581226635789e+02
1.042758302700962076e+02
1.041344890403381953e+02
1.040184041371395693e+02
1.042107554115878969e+02
1.042969718393763401e+02
1.043081186495804502e+02
1.042076572830494570e+02
1.042507967482625304e+02
1.043162270020555269e+02
1.041777620063436132e+02
1.041823643449092174e+02
1.041233761110154887e+02
1.041809878708648114e+02
1.039734350031538099e+02
1.039876553656129801e+02
1.040961014952555388e+02
1.039266153661845351e+02
1.036671716519842903e+02
1.035937454088840468e+02
1.036898558633406537e+02
1.037116459228147676e+02
1.038558320341639956e+02
1.038745837370458531e+02
1.039654016943036510e+02
1.042244707972024997e+02
1.040445632122143707e+02
1.040701555157581737e+02
1.041801669421501799e+02
1.041887583247468143e+02
1.041647207997111337e+02
1.043901147331091153e+02
1.043598257302113694e+02
1.040988519149219371e+02
1.040236910717947580e+02
1.036870302989098604e+02
1.039137139308366784e+02
1.037478042069956530e+02
1.037149222546828895e+02
1.035664767602075358e+02
1.036717590222782093e+02
1.039195182821903387e+02
1.038193645742900202e+02
1.036168289089620487e+02
1.038608323466732770e+02
1.037222031045369732e+02
1.038139410036007604e+02
1.036775340439141786e+02
1.039422102810918176e+02
1.039443065468916103e+02
1.036310230769541789e+02
1.036145808365838974e+02
1.034694414082411953e+02
1.034820183962190470e+02
1.035575905633646983e+02
1.034027128592782958e+02
1.036458770624752361e+02
1.037026021545894565e+02
1.036169818280497736e+02
1.036315917700866152e+02
1.035624534307434601e+02
1.038846065110596157e+02
1.038455393255964196e+02
1.037606319135006174e+02
1.042050034491816604e+02
1.050814659649985288e+02
1.049503371410582986e+02
1.039003789213330151e+02
1.037453725710317372e+02
1.038301219060590483e+02
1.038237010237899369e+02
1.035872800263525306e+02
1.038591767346158150e+02
1.039630253802609161e+02
1.037650767818219748e+02
1.039537151161404154e+02
1.036076779355541362e+02
1.035921571540434201e+02
1.037444253222534201e+02
1.035989989683467343e+02
1.035622665296403397e+02
1.036011311377658757e+02
1.035168284235638367e+02
1.033584432896562504e+02
1.035480636638692147e+02
1.034740136079946922e+02
1.036445962639991762e+02
1.034980054191225349e+02
1.035028801195260968e+02
1.035816178735651789e+02
1.034557440250047762e+02
1.035532225591367137e+02
1.033236492419502355e+02
1.034420786010497721e+02
1.033180316905608152e+02
1.036736331913139679e+02
1.036541655398782922e+02
1.037042428995137300e+02
1.036981621408459802e+02
1.035173073070742760e+02
1.033798334535864143e+02
1.037036249526808120e+02
1.038086972544226541e+02
1.039522750269435392e+02
1.038466620470050543e+02
1.036862927070516065e+02
1.037123556008756964e+02
1.037782039548617377e+02
1.039977344729167328e+02
1.040373874436631780e+02
1.041502367731911960e+02
1.041751726978576187e+02
1.042257054772239684e+02
1.040531847336278588e+02
1.039311537861922545e+02
1.040237894780613601e+02
1.041094084898194154e+02
1.040637478824283306e+02
1.041830989026604470e+02
1.040528008177186763e+02
1.043293944276105378e+02
1.039159395508091279e+02
1.037991501275377573e+02
1.038453301743612940e+02
1.039076344869449144e+02
1.040703471702986604e+02
1.038184015481454878e+02
1.038723339453387382e+02
1.041714331587070745e+02
1.040110324662933152e+02
1.038461405848312893e+02
1.039351267494493953e+02
1.041132869911547374e+02
1.042045401407578993e+02
1.042645568364145277e+02
1.041055014678605346e+02
1.040980838808354179e+02
1.042391327236364873e+02
1.041347285326615406e+02
1.039691512460128564e+02
1.038611681213869389e+02
1.038410617900386939e+02
1.038515936875189141e+02
1.039817659580772187e+02
1.039498745411649168e+02
1.038183944685565763e+02
1.038563085915236144e+02
1.038085077237573586e+02
1.038718253275596481e+02
1.040673216580988480e+02
1.036837086576852585e+02
1.037949648778010499e+02
1.040792347830592490e+02
1.038378525119786531e+02
1.038193105671567338e+02
1.038038238688010466e+02
1.038619235133527781e+02
1.041370838102181722e+02
1.039443006809457728e+02
1.040065596841747606e+02
1.041910713270556528e+02
1.042219899075364964e+02
1.043257285161668193e+02
1.043896371643738945e+02
1.045672101037423687e+02
1.043640596268303540e+02
1.043490405857813670e+02
1.043134019433108932e+02
1.043212989195330920e+02
1.045029607251167789e+02
1.045132147993634106e+02
1.043755685073530088e+02
1.043655551390762071e+02
1.042361620276693372e+02
1.042005297568294111e+02
1.040657138838231361e+02
1.043384222161996746e+02
1.041934133556743944e+02
1.042181407359223329e+02
1.041280557182239761e+02
1.043505297264010068e+02
1.041428511454441548e+02
1.039452443899331371e+02
1.037527916751110979e+02
1.038157591427550557e+02
1.038483455728678138e+02
1.037515438472807716e+02
1.037639275625262911e+02
1.039593235651948504e+02
1.040362950633426067e+02
1.037430424765771733e+02
1.036091707171076166e+02
1.037473604180068065e+02
1.038297449686050555e+02
1.036385982353638582e+02
1.038020802675819567e+02
1.039055023175250909e+02
1.040244527342535292e+02
1.038457049879383334e+02
1.037209532539660586e+02
1.034077460413020759e+02
1.034290374955566563e+02
1.036434245923006188e+02
1.036930133592741754e+02
1.036802226688974571e+02
1.037950577215317765e+02
1.038074980734704980e+02
1.036662635432080890e+02
1.036497484842255687e+02
1.039486953853336075e+02
1.037937571002049282e+02
1.036753209649271668e+02
1.038524518346385577e+02
1.039800302455438157e+02
1.042541416509902206e+02
1.041878440466188493e+02
1.043056133859072077e+02
1.044004062280278760e+02
1.045003921497058172e+02
1.043745765560378516e+02
1.045119307644999367e+02
1.046662695097210474e+02
1.046890298772030548e+02
1.047006679096298569e+02
1.044301059058527983e+02
1.043897681367415800e+02
1.043640864281241392e+02
1.041547484930390084e+02
1.044029648920148929e+02
1.042417753313040976e+02
1.041556235300294162e+02
1.040890228181870896e+02
1.040975972097786553e+02
1.039491745722539378e+02
1.039309275428096555e+02
1.038208426909842501e+02
1.040519585491071268e+02
1.041921568300642065e+02
1.039277167476911359e+02
1.038413003721342562e+02
1.040232698363540749e+02
1.039061625396107331e+02
1.038876553858989951e+02
1.037885301397650579e+02
1.038551402573490066e+02
1.038381222442584573e+02
1.037255279821464882e+02
1.039701627167671347e+02
1.041245494009045558e+02
1.040585378118604467e+02
1.039281301955938090e+02
1.038327954616355271e+02
1.037585010588576750e+02
1.039257027062449765e+02
1.037811614018933142e+02
1.039743996474908130e+02
1.041502159389790592e+02
1.040318089311469691e+02
1.040286276680223665e+02
1.038308099408072991e+02
1.038651529176653696e+02
1.038957352177490776e+02
1.037614947129152938e+02
1.039610354094069748e+02
1.041289200346912907e+02
1.041552781473055376e+02
1.041171042034866474e+02
1.040610795859746531e+02
1.041991545975621278e+02
1.042439909387185537e+02
1.041220784226636766e+02
1.040913389557419606e+02
1.041485875327610557e+02
1.040627659436688930e+02
1.039189008410383792e+02
1.038439966835252761e+02
1.039137367877896878e+02
1.038936412781006595e+02
1.042419051911616492e+02
1.041613416115558977e+02
1.039976103778661383e+02
1.042130882367386135e+02
1.041303621466263394e+02
1.041689325473350891e+02
1.041159332397489976e+02
1.038708751458062949e+02
1.036934015229308130e+02
1.036250158448517311e+02
1.037877196281535674e+02
1.040999209326047179e+02
1.041638602253090937e+02
1.039715953218237274e+02
1.040656597755494346e+02
1.041497790273037793e+02
1.041274597181054560e+02
1.040725670254624191e+02
1.041659965413437732e+02
1.041308801701416940e+02
1.041412392245547665e+02
1.040813272056552989e+02
1.041382442557148522e+02
1.040954026388520930e+02
1.038677164362280507e+02
1.037798907171080174e+02
1.038074246480348535e+02
1.036962969730028163e+02
1.037491318318884197e+02
1.037875000598128565e+02
1.037666657446199281e+02
1.039841900087685360e+02
1.036997148966144522e+02
1.037528269719127394e+02
1.037320503047890980e+02
1.038031278442278875e+02
1.036312114951125665e+02
1.037996989978269369e+02
1.039293721574787952e+02
1.038062539877054604e+02
1.039958984325197804e+02
1.038314943346236561e+02
1.041721453651918381e+02
1.043273411450185790e+02
1.041087979259827137e+02
1.042979457883155305e+02
1.045971591853128189e+02
1.045233150442885375e+02
1.043737781808626579e+02
1.043093757820137597e+02
1.044133432635911305e+02
1.046315948036293406e+02
1.047209146190771776e+02
1.047538988208576995e+02
1.049040788142246896e+02
1.049606658543775382e+02
1.046102670411995774e+02
1.044058518465832890e+02
1.044439407342133279e+02
1.044077219701341335e+02
1.046551513212729958e+02
1.044600344566144514e+02
1.045110501649797783e+02
1.047440650718260997e+02
1.048416807476737347e+02
1.048045247473716159e+02
1.046868778849387667e+02
1.044691604491941774e+02
1.042401894026136517e+02
1.041080503215659689e+02
1.041941731976621668e+02
1.044390311415610881e+02
1.044389578172631730e+02
1.044340501462075679e+02
1.043557752960436886e+02
1.042285467178812581e+02
1.042998345210696556e+02
1.039744345397372740e+02
1.040936091771124126e+02
1.040844127932135734e+02
1.040080150450466192e+02
1.041760768622919784e+02
1.039392097497188985e+02
1.040211880331381735e+02
1.039529449581762748e+02
1.040173716299013762e+02
1.040893495917094356e+02
1.043210002620854908e+02
1.041724881183526179e+02
1.043563282118091706e+02
1.042701017714620946e+02
1.044027877000620492e+02
1.041687566701621677e+02
1.042640249571334152e+02
1.042292463833819340e+02
1.043875603168705339e+02
1.043362153065654496e+02
1.041309540001253282e+02
1.039522152549997713e+02
1.039581317672437279e+02
1.038247456674641001e+02
1.037818482229960466e+02
1.038414436832066912e+02
1.039611751806906170e+02
1.040555128053421754e+02
1.040419988845557384e+02
1.040949951580336545e+02
1.040587183413354779e+02
1.041159038088941600e+02
1.040505416202773148e+02
1.041440251432929358e+02
1.042543209668243804e+02
1.043097247045278948e+02
1.041165496695316932e+02
1.044235388806706197e+02
1.046252024419789706e+02
1.046141195503357721e+02
1.044799141400290097e+02
1.045209088948395362e+02
1.046152986050315690e+02
1.045987073899196105e+02
1.047001145893165699e+02
1.047318011027472551e+02
1.049913006445467403e+02
1.048313246262356131e+02
1.047728712045932156e+02
1.048721559437166775e+02
1.048489175018112576e+02
1.047859644967580977e+02
1.046492407761127339e+02
1.047747760181223668e+02
1.047395925931154892e+02
1.049038314332163395e+02
1.049513024933539356e+02
1.046884883899165288e+02
1.047934252692629400e+02
1.046017096406205695e+02
1.045559310063953404e+02
1.044952915093316363e+02
1.045555609462548574e+02
1.046040825160066134e+02
1.049022677546550142e+02
1.048561412092862923e+02
1.048984428559110995e+02
1.049306134108386601e+02
1.046315078258412967e+02
1.046996340876146974e+02
1.048615072330472486e+02
1.049482415832149371e+02
1.051629408897589002e+02
1.050742163664658335e+02
1.051410727525460942e+02
1.051524930370966757e+02
1.051949057321078129e+02
1.051623554078900895e+02
1.050441211419866079e+02
1.052099074787364543e+02
1.053248287000546100e+02
1.054881755121539157e+02
1.054049713476248513e+02
1.055791655033867329e+02
1.054216146482756074e+02
1.054455590261664071e+02
1.055564795727024148e+02
1.058818733846767941e+02
1.058858564616313771e+02
1.059404134806939766e+02
1.060139953735795757e+02
1.057709888428988165e+02
1.058201584983029733e+02
1.058538966761317965e+02
1.056599739355728502e+02
1.057324972278803727e+02
1.055176458113481743e+02
1.058090604361134979e+02
1.058566875505829756e+02
1.056415455675578130e+02
1.055477223254887349e+02
1.055033306835547791e+02
1.055788204240744506e+02
1.053842059067024337e+02
1.053071132464786075e+02
1.055556461030059268e+02
1.057548061199737788e+02
1.056768919242095706e+02
1.054892924687575686e+02
1.054055259827188138e+02
1.055227738598394467e+02
1.055320945410706486e+02
1.056231456190228357e+02
1.060595128721698899e+02
1.062506778100605800e+02
1.064379113519874096e+02
1.062221430277598131e+02
1.063356880784450595e+02
1.063746415859677370e+02
1.064635777889242547e+02
1.065850017123152469e+02
1.065664841414963320e+02
1.069198818678607381e+02
1.068535705088573309e+02
1.065350081952250179e+02
1.065373279737064109e+02
1.065009513348293382e+02
1.063506371327164572e+02
1.061702183003910136e+02
1.059635334912179729e+02
1.060519435796985164e+02
1.059941247924920162e+02
1.060389055083155796e+02
1.061399613579120143e+02
1.060075917857287777e+02
1.060743510803282135e+02
1.058791592731827791e+02
1.059804306456385348e+02
1.060635535971874077e+02
1.062130752900729789e+02
1.060297620190451369e+02
1.059785286639422566e+02
1.059391188264526136e+02
1.058496116042123276e+02
1.059315728966228534e+02
1.061898252174152901e+02
1.061596685016681363e+02
1.062549971674121281e+02
1.062230901754052468e+02
1.065214006216082083e+02
1.066273971129065359e+02
1.067328873125710942e+02
1.066188100791946169e+02
1.064560606831255285e+02
1.064660409796174179e+02
1.065859163949948965e+02
1.067986145044831687e+02
1.069605875732337665e+02
1.068928361250449370e+02
1.066977436343936603e+02
1.066802543230599696e+02
1.064185934843927726e+02
1.064351276582596597e+02
1.063591144328231763e+02
1.062736045478475972e+02
1.065981356615388762e+02
1.064940047426314891e+02
1.062059930732102089e+02
1.062035107676292114e+02
1.062138004420837945e+02
1.062594867382611596e+02
1.062534694936041149e+02
1.064079363793540125e+02
1.063101543332035277e+02
1.063378037625438566e+02
1.064506436863349705e+02
1.063912999560204184e+02
1.062677534712160110e+02
1.065061915442144880e+02
1.072361493838414503e+02
1.067583273038523544e+02
1.064339180602024584e+02
1.063701563640020140e+02
1.062641225531633751e+02
1.060180315474346600e+02
1.062509247865188371e+02
1.059783814085272979e+02
1.060824369803934957e+02
1.056926858766569381e+02
1.057670302410886904e+02
1.058750715194716747e+02
1.058596500544540504e+02
1.055523650177012485e+02
1.056405589765028878e+02
1.057948852818718990e+02
1.056171341391774092e+02
1.056790701109486150e+02
1.056620630206520133e+02
1.060868315836452496e+02
1.060884812286182068e+02
1.063837491716182768e+02
1.060354484447006911e+02
1.058016218125997767e+02
1.061282756899733783e+02
1.059906407253084097e+02
1.059263613089980112e+02
1.059169452556176338e+02
1.061595340906448115e+02
1.060216041094598580e+02
1.059625283920940575e+02
1.059171185032310518e+02
1.058274090070659952e+02
1.057529897001454202e+02
1.061019447832012474e+02
1.063882163912039687e+02
1.061698065718210557e+02
1.063553952222046348e+02
1.063694279756064986e+02
1.062728937572823753e+02
1.062598813746860174e+02
1.062504024141146175e+02
1.064729420601848346e+02
1.064113518756798555e+02
1.064926386856936915e+02
1.065071938114984533e+02
1.063537108872491359e+02
1.061026404032236172e+02
1.062880559071298876e+02
1.063007227047281731e+02
1.060781442220657738e+02
1.060484364532910746e+02
1.058383303829881328e+02
1.056014117916982542e+02
1.055510608565856074e+02
1.057322858516324118e+02
1.057793421490888477e+02
1.058293062353280192e+02
1.057172085556939720e+02
1.057625062836696941e+02
1.057476472412929667e+02
1.057685472955129171e+02
1.055417422992317711e+02
1.056210759522470113e+02
1.057873028415980343e+02
1.056786712267736164e+02
1.058282271039483362e+02
1.058672125707471707e+02
1.060866420529760603e+02
1.058904458546676750e+02
1.059764064059408923e+02
1.061040367001132552e+02
1.063023603144063713e+02
1.063048004458754576e+02
1.062437192837004574e+02
1.065575163271292780e+02
1.066134042074682355e+02
1.065051004786714941e+02
1.067859730922612584e+02
1.065598989116680571e+02
1.065846226509843149e+02
1.064385160498778191e+02
1.065105367926245776e+02
1.065193069853721681e+02
1.064799905984347674e+02
1.064453231742030539e+02
1.063188555505441570e+02
1.062368932467624347e+02
1.062987983717645335e+02
1.065288665521002969e+02
1.063133265951342139e+02
1.062096999451218977e+02
1.060430351327253788e+02
1.059915166725286753e+02
1.059630845442460867e+02
1.060895934317884155e+02
1.060440983856027373e+02
1.060723297570176555e+02
1.062566364964176984e+02
1.061184182748901748e+02
1.061045680737084069e+02
1.061123708914174557e+02
1.059528894328466748e+02
1.059649814690908869e+02
1.059908864881219159e+02
1.059222409891910957e+02
1.060084103882935267e+02
1.061167794515698546e+02
1.059956905949308492e+02
1.058637595526066519e+02
1.056157463377917338e+02
1.057376508640256958e+02
1.058288513212752093e+02
1.055877110709420066e+02
1.055852383733762565e+02
1.057170433990385305e+02
1.057209328231629968e+02
1.059175014077694499e+02
1.057147680196803350e+02
1.060209909160637665e+02
1.060030609509916957e+02
1.062592512914174137e+02
1.062967739132022871e+02
1.065259526951067954e+02
1.064730377357467290e+02
1.064967395872052549e+02
1.063295975094918191e+02
1.066254003658769705e+02
1.064067467052765323e+02
1.062245137792738205e+02
1.062742074252751365e+02
1.061956366483567535e+02
1.063384779415283390e+02
1.063529142314012148e+02
1.061314526042062170e+02
1.061107453170396582e+02
1.059829945687445303e+02
1.059122016287130918e+02
1.058420337151034545e+02
1.060515430773329371e+02
1.060947663850890592e+02
1.061638391876820577e+02
1.059305500985304889e+02
1.059124398062562591e+02
1.058712099080121334e+02
1.058056847877540179e+02
1.059302264602537349e+02
1.059681364366044534e+02
1.059504751924401376e+02
1.062256724043039355e+02
1.062365229843444894e+02
1.060932115054445006e+02
1.061881592893893753e+02
1.059428960896890146e+02
1.058262899265905759e+02
1.058043998426578867e+02
1.057626677993966098e+02
1.054698238059553290e+02
1.054331143253402558e+02
1.056057125398496481e+02
1.056827981204852165e+02
1.056532296173004113e+02
1.054149291917118489e+02
1.056976198433189325e+02
1.056958440805521775e+02
1.058837733436338482e+02
1.057027549713999548e+02
1.060368470677415758e+02
1.058611969442826961e+02
1.057959755383148348e+02
1.057874868097284917e+02
1.058543670641396091e+02
1.058123594226597675e+02
1.060432986956453334e+02
1.060289069060378466e+02
1.062622643637737383e+02
1.060769872152278595e+02
1.059803466008217754e+02
1.058797263481221336e+02
1.059854908312302939e+02
1.057932939929212921e+02
1.059084135438265406e+02
1.061569473105821970e+02
1.061984639321131141e+02
1.060787751144301296e+02
1.061494309127449753e+02
1.061244762777447335e+02
1.063389906047873552e+02
1.063264312146395270e+02
1.061918625203685735e+02
1.059898777480681673e+02
1.060714614962048188e+02
1.062586359741436866e+02
1.060890449660448951e+02
1.059651803043609704e+02
1.059509733931155750e+02
1.062730801527014108e+02
1.063286188071167970e+02
1.064078011592385735e+02
1.062478717650637350e+02
1.063431195212372131e+02
1.060127160921532976e+02
1.058869377168848160e+02
1.058622830541128934e+02
1.059740677148491272e+02
1.061356959065648198e+02
1.059819345522553959e+02
1.059635219616029786e+02
1.059548463319150926e+02
1.058380695507626541e+02
1.057212592932773703e+02
1.058023380645612548e+02
1.058258151896912977e+02
1.057423581827580534e+02
1.056017010434086103e+02
1.055449408567756535e+02
1.057866709378617003e+02
1.056038157161384134e+02
1.055914031768595720e+02
1.055419436629230603e+02
1.056554037585624570e+02
1.056664007849276175e+02
1.055110990135626992e+02
1.055526498193865734e+02
1.057817670088772530e+02
1.059692209282448374e+02
1.060920568247567388e+02
1.060536326680920780e+02
1.060949602646457350e+02
1.062894009275800897e+02
1.062517428834008086e+02
1.062985208519396139e+02
1.063061664016772596e+02
1.063174762446635668e+02
1.063027960124400551e+02
1.062666732273335981e+02
1.062291309849705385e+02
1.061296605583868882e+02
1.063007682163574117e+02
1.061478984855048111e+02
1.061491094994863147e+02
1.060925940642955965e+02
1.060728925842082901e+02
1.059980314098980472e+02
1.059306204898573753e+02
1.056057560287394068e+02
1.056057726152025538e+02
1.055534765129103789e+02
1.054507217646395389e+02
1.051463803191452939e+02
1.044459369755600875e+02
1.023320900321821938e+02
9.770474535134857774e+01
6.734961546931531018e+01
6.646265989294378729e-01
4.662045783707634561e-01
2.306942181315096430e-01
1.307173987824307160e-01
2.526809890006444514e-01
1.932399649325589053e-01
2.171592608583742257e-01
1.198553902604775345e-01
4.275888682963369103e-02
2.508869204419083010e-01
1.855322159597768694e-01
2.142110172930807854e-01
1.820643306905375125e-01
1.650795916601910385e-01
2.147210509909484033e-01
2.143362248553779548e-01
2.573251982678276262e-01
3.100253427257078642e-01
1.439507656379944711e-01
2.002941668536712960e-01
1.756803634088505151e-01
1.976241510702335669e-01
1.959352649535955893e-01
1.681500086756030354e-01
2.382244717327450800e-01
1.982566616269920701e-01
2.212737147221628398e-01
1.615716561562229314e-01
3.288266027175908990e-01
4.062399682507637499e-01
2.524657695468187635e-01
2.135875079289669687e-01
2.584445821600044324e-01
3.067178606757959836e-01
2.187157586943625498e-01
2.133206074863092105e-01
3.003052716340059436e-01
3.761924804186688176e-01
2.059782663620488563e-01
2.896532234461488553e-01
3.357223230242891709e-01
3.139533000326779066e-01
2.255476615770963811e-01
7.744714527493601341e-02
2.614726227844319517e-01
3.130674413900997877e-01
2.137709703769444802e-01
2.016046995979416945e-01
2.703340410750565415e-01
1.756630689903518894e-01
1.525541835365012977e-01
1.601710103757563175e-01
2.490033456736810979e-01
3.017110754000917328e-01
1.653427500374629044e-01
3.059867415797624668e-01
1.733408632207870115e-01
3.179972614350244364e-01
2.030681514312323577e-01
1.519355287427147649e-01
1.397219258698438882e-01
1.558026016034029793e-01
2.176226704148056523e-01
1.553733763369731236e-01
3.882759200341900918e-02
1.288079329479578927e-01
1.511979368836328108e-01
1.751214805605995073e-01
1.977799019921101520e-01
2.831061222477851413e-01
1.153099918014864889e-01
2.070055144780007517e-01
2.303132351969109370e-01
1.895229793239168181e-01
1.741287201500208992e-01
2.065785142267297925e-01
1.944086025186224642e-01
1.992633789458312377e-01
8.595033644408545115e-02
1.274187156463083559e-01
3.220020828364114074e-01
2.163291286766129140e-01
2.719210822707789355e-01
3.249548775632580266e-01
2.294235333521967846e-01
1.957167079805257615e-01
1.591062404453562618e-01
2.307972766991590596e-01
2.962630295606643038e-01
4.644887898193792442e-01
3.646949272289425337e-01
2.814747830609026225e-01
3.128938903642680680e-01
1.326420351587784818e-01
2.488519436421093300e-01
2.060321723612252853e-01
1.227396141259027296e-01
1.659339967101174373e-01
2.129052379852596211e-01
2.212297201446656869e-01
1.836280092552798893e-01
4.487957720606169376e-01
2.137919057274203505e-01
1.768264474588600033e-01
1.983705418459791314e-01
2.057462581707512062e-01
2.410631839651667385e-01
2.189886262186516719e-01
1.362631429244119952e-01
2.194895575859607817e-01
2.792227663393500592e-01
2.718161021080782169e-01
1.889574214351581460e-01
4.643966540731159220e-02
2.062684283032084620e-01
2.323413346883716479e-01
1.489684737065972708e-01
3.161013479551399441e-01
2.922915833575379652e-01
1.199036325897456789e-01
2.754734169043634995e-01
1.736321376689821117e-01
2.133434644392886437e-01
2.941878002497658184e-01
1.820285282060268850e-01
2.887714102778851655e-01
2.690068207280459367e-01
3.539533728316731076e-01
4.209603518508515108e-01
2.721264914416916536e-01
2.155263034777603615e-01
2.265207002840110562e-01
3.065946758547700712e-01
3.190795280595170036e-01
1.720208236002790381e-01
3.159631948700835080e-01
2.307233455772215724e-01
1.439613850187052568e-01
2.618001042677044476e-01
1.733597758332520167e-01
2.861597505261920249e-01
1.994244901204608178e-01
1.948886996746892475e-01
2.758792795347672633e-01
2.396412994263051877e-01
2.303377103426117456e-01
1.919365117741601567e-01
2.023156924389695188e-01
2.737080712411602001e-01
3.302685123768825393e-01
2.696183959314567002e-01
1.488912050665798237e-01
2.785464634770402625e-01
2.102616189518127232e-01
2.482307604243924604e-01
2.143971093046886933e-01
2.207463866050961565e-01
2.404021527878482667e-01
1.759538377548780508e-01
2.110778953684263604e-01
2.660673760808135446e-01
1.865030296537075749e-01
1.611442513560913392e-01
2.912087099121618561e-01
1.365994233202341146e-01
1.424657716333467272e-01
2.007999527995345534e-01
1.506225687127372703e-01
4.186744542480691500e-01
1.099696568279345810e-01
2.277718656337034964e-01
0.000000000000000000e+00
2.127089311441300312e-01
2.690993610481626219e-01
2.452420620772167714e-01
1.111215056814177649e-01
2.362049688858463004e-01
2.538771358463762784e-01
2.188635197948892719e-01
2.729597588672579844e-01
1.938431457670023450e-01
2.302356631483538085e-01
1.697855956141801625e-01
1.419597834136736569e-01
2.264507135049962927e-01
2.535049518275082070e-01
2.087129086618904061e-01
2.943919957734781323e-01
2.013093796737251973e-01
2.223479915283336217e-01
1.904778133777859095e-01
1.442396127993188504e-01
2.607829698418090980e-01
2.015800221806051118e-01
1.282164839964473613e-01
2.065110558731195756e-01
1.233112402337405156e-01
2.456204154475650214e-01
1.638406638823781680e-01
2.800518871508246299e-01
1.795536056242813538e-01
1.115310092392948205e-01
3.011115354918020293e-01
1.248084718085601397e-01
1.748686381606217033e-01
1.384957413478141719e-01
1.460944646738759900e-01
2.068195236055480057e-01
1.286767583098508139e-01
1.077207753532131163e-01
1.726036759093236839e-01
2.311297138907493220e-01
9.743271908603734488e-02
2.368296918977043086e-01
2.059670401593679534e-01
2.792369255132677863e-01
2.607739686550632485e-01
2.460455952332372687e-01
2.381221211288611639e-01
2.781162268417211592e-01
1.977564382170056145e-01
2.511094217568906051e-01
2.319833098448199626e-01
2.672501728419603428e-01
1.316189336566080392e-01
3.116068213926963537e-01
2.738732278995751890e-01
2.018230542989116749e-01
2.166768375504780630e-01
3.230694823270252591e-01
2.776422990440458594e-01
1.633786702448611905e-01
1.511871152283369435e-01
2.292323844894668672e-01
